<?xml version="1.0" standalone="no"?>
<!DOCTYPE svg PUBLIC "-//W3C//DTD SVG 20010904//EN"
 "http://www.w3.org/TR/2001/REC-SVG-20010904/DTD/svg10.dtd">
<svg version="1.0" xmlns="http://www.w3.org/2000/svg"
 width="128.000000pt" height="128.000000pt" viewBox="0 0 128.000000 128.000000"
 preserveAspectRatio="xMidYMid meet">
<metadata>
Created by potrace 1.15, written by Peter Selinger 2001-2017
</metadata>
<g transform="translate(0.000000,128.000000) scale(0.100000,-0.100000)"
fill="#000000" stroke="none">
<path d="M388 923 c-120 -120 -221 -228 -224 -241 -4 -13 1 -33 10 -47 14 -20
25 -25 61 -25 l45 0 0 -183 c0 -236 -5 -227 135 -227 l103 0 4 161 c4 192 2
189 118 189 111 0 110 1 110 -193 l0 -157 103 0 c150 0 147 -5 147 228 l0 182
39 0 c47 0 71 20 71 61 0 23 -13 45 -56 89 l-57 59 2 107 c3 141 -5 154 -94
154 -55 0 -66 -3 -79 -22 -9 -12 -16 -30 -16 -38 0 -9 -29 12 -71 52 -107 103
-91 110 -351 -149z"/>
</g>
</svg>
