<?xml version="1.0" standalone="no"?>
<!DOCTYPE svg PUBLIC "-//W3C//DTD SVG 20010904//EN"
 "http://www.w3.org/TR/2001/REC-SVG-20010904/DTD/svg10.dtd">
<svg version="1.0" xmlns="http://www.w3.org/2000/svg"
 width="128.000000pt" height="128.000000pt" viewBox="0 0 128.000000 128.000000"
 preserveAspectRatio="xMidYMid meet">
<metadata>
Created by potrace 1.15, written by Peter Selinger 2001-2017
</metadata>
<g transform="translate(0.000000,128.000000) scale(0.100000,-0.100000)"
fill="#000000" stroke="none">
<path d="M520 1054 c-53 -14 -160 -71 -160 -85 0 -3 21 -27 46 -52 l46 -47 42
25 c22 13 60 27 84 31 l42 7 0 68 c0 79 -1 80 -100 53z"/>
<path d="M640 1001 c0 -67 1 -71 23 -71 12 -1 38 -7 58 -14 37 -13 37 -13 90
35 45 40 51 50 39 59 -27 18 -115 48 -163 55 l-47 7 0 -71z"/>
<path d="M802 903 c-116 -100 -138 -115 -173 -117 -75 -6 -122 -76 -94 -143
44 -104 197 -76 200 36 1 35 13 55 114 176 96 115 112 139 100 150 -12 11 -36
-6 -147 -102z"/>
<path d="M301 905 c-39 -54 -71 -140 -71 -190 l0 -36 67 3 67 3 12 48 c7 27
24 65 37 86 l25 38 -47 47 c-26 25 -49 46 -52 46 -3 0 -20 -20 -38 -45z"/>
<path d="M902 870 l-43 -50 17 -57 c9 -32 18 -64 20 -70 4 -16 130 -18 139 -3
15 24 -61 230 -84 230 -3 0 -25 -22 -49 -50z"/>
<path d="M230 637 c0 -19 6 -55 14 -81 16 -54 73 -146 90 -146 6 0 32 21 59
46 l47 45 -24 32 c-13 18 -31 55 -39 82 l-14 50 -67 3 -66 3 0 -34z"/>
<path d="M897 663 c-2 -4 -10 -29 -17 -56 -7 -26 -17 -50 -21 -53 -5 -3 -9
-11 -9 -17 0 -8 21 -12 63 -12 34 0 68 -2 76 -5 16 -6 37 48 43 106 l3 39 -67
3 c-36 2 -68 -1 -71 -5z"/>
<path d="M834 502 c-22 -11 -56 -38 -76 -61 l-35 -41 -165 0 c-146 0 -168 -2
-189 -18 -30 -25 -30 -75 0 -105 20 -21 31 -22 192 -23 l171 -1 20 -32 c42
-66 154 -97 230 -63 45 20 102 76 95 96 -2 6 -33 12 -74 14 -62 2 -73 6 -97
31 l-27 28 24 28 c22 26 29 28 89 26 82 -3 101 13 69 58 -50 70 -152 98 -227
63z"/>
</g>
</svg>
